﻿beautiful_peasant_character = {
	age = { 18 35 }
	random_traits_list = {
		count = 1
		beauty_good_2 = {}
		beauty_good_3 = {}
	}
	dynasty = none
	random_traits = yes
	faith = this.faith
	culture = this.culture
	diplomacy = {
		min_template_decent_skill
		max_template_decent_skill
	}
	#Anbennar
	after_creation = {
		if = {
			limit = {
				NOT = { has_racial_trait = yes }
			}
			assign_racial_trait_effect = yes
		}
	}
}

servant_character = {
	age = { 18 40 }
	random_traits = yes
	culture = this.culture
	faith = this.faith
	dynasty = none
	gender_female_chance = 50
	intrigue = {
		min_template_decent_skill
		max_template_decent_skill
	}
	
	after_creation = {
		random_list = {
			200 = {
				# Character is of average weight, nothing happens	
			}
			25 = {
				change_current_weight = -25
			}
			25 = {
				change_current_weight = -75
			}
			25 = {
				change_current_weight = 25
			}
			25 = {
				change_current_weight = 75
			}
		}
		add_character_flag = peasant_outfit
		
		#Anbennar
		if = {
			limit = {
				NOT = { has_racial_trait = yes }
			}
			assign_racial_trait_effect = yes
		}
	}
}

witchy_template = {
	age = { 15 63 }
	gender_female_chance = 50
	culture = root.culture
	faith = root.faith
	dynasty = none
	random_traits = no

	#Education
	random_traits_list = {
		count = 1
		education_intrigue_2  = {}
		education_intrigue_3  = {}
		education_intrigue_4  = {}
		education_learning_2  = {}
		education_learning_3  = {}
		education_learning_4  = {}
		education_diplomacy_3  = {}
		education_diplomacy_4  = {}
	}
	#Personality trait 1 (main)
	random_traits_list = {
		count = 1
		lustful = {}
		deceitful = {}
		brave = {}
		gregarious = {}
		ambitious = {}
		vengeful = {}
	}
	#Personality trait 2-3
	random_traits_list = {
		count = 2
		lustful = {}
		deceitful = {}
		brave = {}
		gregarious = {}
		ambitious = {}
		vengeful = {}
		gluttonous = {}
		temperate  = {}
		greedy = {}
		generous = {}
		lazy = {}
		diligent = {}
		wrathful = {}
		calm = {}
		patient = {}
		impatient = {}
		arrogant = {}
		honest = {}
		arbitrary = {}
		just = {}
		paranoid = {}
		trusting = {}
		compassionate = {}
		callous = {}
		sadistic = {}
		stubborn = {}
		fickle = {}
		forgiving = {}
	}
	random_traits_list = {
		count = 1
		beauty_good_1 = {}
		beauty_good_2 = {}
		beauty_good_3 = {}
		intellect_good_1 = {}
		intellect_good_2 = {}
		intellect_good_3 = {}
		shrewd  = {}
		fecund = {}
		dwarf = {}
		giant = {}
		albino = {}
		bleeder = {}
		lunatic_1 = {}
		possessed_1 = {}
	}
	random_traits_list = {
		count = 1
		lifestyle_herbalist = {}
		schemer = {}
		seducer = {}
		torturer = {}
		whole_of_body = {}
		scholar = {}
	}
	#Anbennar
	after_creation = {
		if = {
			limit = {
				NOT = { has_racial_trait = yes }
			}
			assign_racial_trait_effect = yes
		}
	}
}


merchant_template = {
	age = { 20 40 }
	random_traits_list = {
		count = 1
		education_stewardship_1 = {}
		education_stewardship_2 = {}
		education_stewardship_3 = {}
		education_stewardship_4 = {}
	}
	dynasty = none
	random_traits = yes
	faith = this.faith
	culture = this.culture
	gender_female_chance = root_faith_dominant_gender_adjusted_female_chance
	stewardship = {
		min_template_decent_skill
		max_template_decent_skill
	}
	prowess = { 2 10 }
	martial = { 2 10 }
	diplomacy = { 5 13 }
	learning = { 5 13 }
	#Anbennar
	after_creation = {
		if = {
			limit = {
				NOT = { has_racial_trait = yes }
			}
			assign_racial_trait_effect = yes
		}
	}
}

hunter_template = {
	age = { 18 50 }
	dynasty = none
	random_traits = yes
	faith = this.faith
	culture = this.culture
	gender_female_chance = root_soldier_female_chance
	prowess = {
		min_template_decent_skill
		max_template_decent_skill
	}
	random_traits_list = {
		count = 1
		education_martial_1 = {}
		education_martial_2 = {}
	}
	trait = lifestyle_hunter
	random_traits_list = {
		count = 1
		brave = {}
		calm = {}
		shy = {}
		patient = {}
		physique_good_1 = {}
		physique_good_2 = {}
		strong = {}
		deceitful = {}
		greedy = {}
		callous = {}
		diligent = {}
		arrogant = {}
		stubborn = {}
		athletic = {}
	}
	after_creation = {
		add_random_tiered_trait_track_xp_effect = {
			TRAIT = lifestyle_hunter
			TRACK = hunter
			LEVEL_1 = no
			LEVEL_3 = yes
		}
	}
}

falconer_template = {
	age = { 18 50 }
	dynasty = none
	random_traits = yes
	faith = this.faith
	culture = this.culture
	gender_female_chance = root_soldier_female_chance
	prowess = {
		min_template_decent_skill
		max_template_decent_skill
	}
	random_traits_list = {
		count = 1
		education_martial_1 = {}
		education_martial_2 = {}
	}
	trait = lifestyle_hunter
	random_traits_list = {
		count = 1
		brave = {}
		calm = {}
		shy = {}
		patient = {}
		physique_good_1 = {}
		physique_good_2 = {}
		strong = {}
		deceitful = {}
		greedy = {}
		callous = {}
		diligent = {}
		arrogant = {}
		stubborn = {}
		athletic = {}
	}
	after_creation = {
		add_random_tiered_trait_track_xp_effect = {
			TRAIT = lifestyle_hunter
			TRACK = falconer
			LEVEL_1 = no
			LEVEL_3 = yes
		}
		
		#Anbennar
		if = {
			limit = {
				NOT = { has_racial_trait = yes }
			}
			assign_racial_trait_effect = yes
		}
	}
}

detective_template = {
	age = { 30 40 }
	dynasty = none
	faith = this.faith
	culture = this.culture
	gender_female_chance = 0
	random_traits = yes
	random_traits_list = {
		count = 1
		education_learning_1 = {}
		education_learning_2 = {}
		education_learning_3 = {}
	}
	random_traits_list = {
		count = 1
		intellect_good_1 = {}
		intellect_good_2 = {}
	}
	martial = {
		min_template_decent_skill
		max_template_decent_skill
	}
	stewardship = { 2 10 }
	prowess = { 5 13 }
	diplomacy = { 2 10 }
	learning = { 5 10 }
	#Anbennar
	after_creation = {
		if = {
			limit = {
				NOT = { has_racial_trait = yes }
			}
			assign_racial_trait_effect = yes
		}
	}
}

generic_peasant_character = {
	age = { 18 50 }
	random_traits = yes
	culture = root.culture
	faith = root.faith
	gender_female_chance = 50
	dynasty = none
	martial = {
		min_template_low_skill
		max_template_low_skill
	}
	stewardship = {
		min_template_low_skill
		max_template_low_skill
	}
	diplomacy = {
		min_template_low_skill
		max_template_low_skill
	}
	intrigue = {
		min_template_low_skill
		max_template_low_skill
	}
	learning = {
		min_template_low_skill
		max_template_low_skill
	}
	
	after_creation = {
		random_list = {
			200 = {
				# Character is of average weight, nothing happens	
			}
			25 = {
				change_current_weight = -25
			}
			25 = {
				change_current_weight = -75
			}
			25 = {
				change_current_weight = 25
			}
			25 = {
				change_current_weight = 75
			}
		}
		add_character_flag = peasant_outfit
	
		#Anbennar
		if = {
			limit = {
				NOT = { has_racial_trait = yes }
			}
			assign_racial_trait_effect = yes
		}
	}
}

generic_female_peasant_character = {
	age = { 18 50 }
	random_traits = yes
	culture = root.culture
	faith = root.faith
	gender = female
	dynasty = none
	martial = {
		min_template_low_skill
		max_template_low_skill
	}
	stewardship = {
		min_template_low_skill
		max_template_low_skill
	}
	diplomacy = {
		min_template_low_skill
		max_template_low_skill
	}
	intrigue = {
		min_template_low_skill
		max_template_low_skill
	}
	learning = {
		min_template_low_skill
		max_template_low_skill
	}
	
	after_creation = {
		random_list = {
			200 = {
				# Character is of average weight, nothing happens	
			}
			25 = {
				change_current_weight = -25
			}
			25 = {
				change_current_weight = -75
			}
			25 = {
				change_current_weight = 25
			}
			25 = {
				change_current_weight = 75
			}
		}
		add_character_flag = peasant_outfit
		
		#Anbennar
		if = {
			limit = {
				NOT = { has_racial_trait = yes }
			}
			assign_racial_trait_effect = yes
		}
	}
}

challenger_peasant_character = {
	age = { 18 45 }
	dynasty = none
	random_traits = yes
	gender_female_chance = root_soldier_female_chance
	faith = root.faith
	culture = root.culture
	trait = zealous
	martial = {
		min_template_decent_skill
		max_template_decent_skill
	}
	stewardship = { 2 4 }
	prowess = { 5 13 }
	diplomacy = { 2 6 }
	learning = { 5 7 }
}

peasant_character = {
	age = { 18 40 }
	dynasty = none
	trait = peasant_leader
	random_traits = yes
	
	after_creation = {
		random_list = {
			200 = {
				# Character is of average weight, nothing happens	
			}
			25 = {
				change_current_weight = -25
			}
			25 = {
				change_current_weight = -75
			}
			25 = {
				change_current_weight = 25
			}
			25 = {
				change_current_weight = 75
			}
		}
		add_character_flag = peasant_outfit
		
		#Anbennar
		if = {
			limit = {
				NOT = { has_racial_trait = yes }
			}
			assign_racial_trait_effect = yes
		}
	}
}

drunken_peasant_character = {
	age = { 18 45 }
	dynasty = none
	random_traits = yes
	gender_female_chance = root_soldier_female_chance
	faith = root.faith
	culture = root.culture
	trait = drunkard
	trait = peasant_leader
	martial = {
		min_template_decent_skill
		max_template_decent_skill
	}
	prowess = { 5 13 }
	
	after_creation = {
		#Anbennar
		if = {
			limit = {
				NOT = { has_racial_trait = yes }
			}
			assign_racial_trait_effect = yes
		}
	}
}

diseased_peasant_character = {
	age = { 18 45 }
	dynasty = none
	random_traits = yes
	gender_female_chance = 50
	faith = root.faith
	culture = root.culture
	trait = peasant_leader
	random_traits_list = {
		count = { 1 3 }
		consumption = {}
		typhus = {}
		lovers_pox = {}
		great_pox = {}
		pneumonic = {}
	}
	health = 6
	
	after_creation = {
		#Anbennar
		if = {
			limit = {
				NOT = { has_racial_trait = yes }
			}
			assign_racial_trait_effect = yes
		}
	}
}

peasant_child_character = {
	age = { 3 15 }
	dynasty = none
	gender_female_chance = 50
	random_traits = yes
	
	after_creation = {
		add_character_flag = peasant_outfit
		#Anbennar
		if = {
			limit = {
				NOT = { has_racial_trait = yes }
			}
			assign_racial_trait_effect = yes
		}
	}
}

peasant_toddler_character = {
	age = { 3 8 }
	dynasty = none
	gender_female_chance = 50
	random_traits = yes
}

bandit_character = {
	age = { 20 40 }
	random_traits = no
	dynasty = none
	faith = root.location.county.holder.faith
	culture = root.location.culture
	random_traits_list = {
		count = 1
		education_martial_1 = { weight = { base = 50 } }
		education_martial_2 = { weight = { base = 20 } }
		education_martial_3 = { weight = { base = 5 } }
	}
	random_traits_list = {
		count = 2
		ambitious = {}
		gregarious = {}
		impatient = {}
		wrathful = {}
		callous = {}
		stubborn = {}
		vengeful = {}
		greedy = {}
		zealous = {}
		lazy = {}
		deceitful = {}
		arrogant = {}
		gluttonous = {}
	}
	random_traits_list = {
		count = 1
		intellect_bad_1 = { weight = { base = 10 } }
		intellect_bad_2 = { weight = { base = 10 } }
		physique_good_1 = { weight = { base = 5 } }
		physique_good_2 = { weight = { base = 5 } }
		strong = { weight = { base = 5 } }
		giant = { weight = { base = 5 } }
		reckless = { weight = { base = 20 } }
		rough_terrain_expert = { weight = { base = 20 } }
		unyielding_defender = { weight = { base = 10 } }
		flexible_leader = { weight = { base = 10 } }
		forder = { weight = { base = 10 } }
		tourney_participant = { weight = { base = 20 } }
	}
	gender_female_chance = root_soldier_female_chance
	martial = {
		min_template_decent_skill
		max_template_decent_skill
	}
	after_creation = {
		random_list = {
			10 = {}
			10 = {
				add_random_tiered_trait_track_xp_effect = {
					TRAIT = tourney_participant
					TRACK = horse
					LEVEL_1 = yes
					LEVEL_3 = no
				}
			}
			10 = {
				add_random_tiered_trait_track_xp_effect = {
					TRAIT = tourney_participant
					TRACK = bow
					LEVEL_1 = yes
					LEVEL_3 = no
				}
			}
		}
		
		#Anbennar
		if = {
			limit = {
				NOT = { has_racial_trait = yes }
			}
			assign_racial_trait_effect = yes
		}
	}
}

guide_character = {
	age = { 18 40 }
	random_traits = yes
	culture = root.location.county.holder.culture
	faith = root.location.faith
	dynasty = none
	gender_female_chance = 50
	stewardship = {
		min_template_decent_skill
		max_template_decent_skill
	}
	diplomacy = {
		min_template_decent_skill
		max_template_decent_skill
	}
	
	#Anbennar
	after_creation = {
		if = {
			limit = {
				NOT = { has_racial_trait = yes }
			}
			assign_racial_trait_effect = yes
		}
	}
}

tournament_locale_character = {
	age = { 18 40 }
	random_traits = yes
	culture = scope:activity.activity_location.culture
	faith = scope:activity.activity_location.faith
	dynasty = none
	gender_female_chance = activity_host_faith_dominant_gender_adjusted_female_chance
	intrigue = {
		min_template_decent_skill
		max_template_decent_skill
	}
	
	#Anbennar
	after_creation = {
		if = {
			limit = {
				NOT = { has_racial_trait = yes }
			}
			assign_racial_trait_effect = yes
		}
	}	
}

child_peasant_character = {
	age = { 6 14 }
	dynasty = none
	random_traits = yes
	
	after_creation = {
		random_list = {
			200 = {
				# Character is of average weight, nothing happens	
			}
			25 = {
				change_current_weight = -25
			}
			25 = {
				change_current_weight = -75
			}
			25 = {
				change_current_weight = 25
			}
			25 = {
				change_current_weight = 75
			}
		}
		add_character_flag = peasant_outfit
		# Anbennar
		if = {
			limit = {
				NOT = { has_racial_trait = yes }
			}
			assign_racial_trait_effect = yes
		}
	}
}

servant_father_character = {
	age = { 16 36 }
	random_traits = yes
	dynasty = none
	gender = male
	intrigue = {
		min_template_decent_skill
		max_template_decent_skill
	}
	
	after_creation = {
		random_list = {
			200 = {
				# Character is of average weight, nothing happens	
			}
			25 = {
				change_current_weight = -25
			}
			25 = {
				change_current_weight = -75
			}
			25 = {
				change_current_weight = 25
			}
			25 = {
				change_current_weight = 75
			}
		}
		add_character_flag = peasant_outfit
		
		# Anbennar
		if = {
			limit = {
				NOT = { has_racial_trait = yes }
			}
			assign_racial_trait_effect = yes
		}
	}
}

