#k_idanas
##d_idanas
###c_idanas
594 = {		#Idanas

    # Misc
    culture = barsibu
    religion = bulwari_sun_cult
	holding = castle_holding

    # History
}

###c_irrliam
595 = {		#Irrliam

    # Misc
    culture = sun_elvish
    religion = bulwari_sun_cult
	holding = castle_holding

    # History
}

###c_asr_lime
593 = {		#Asr Limes

    # Misc
    culture = barsibu
    religion = bulwari_sun_cult
	holding = castle_holding

    # History
}

##d_anzabad
###c_anzabad
560 = {		#Anzabad

    # Misc
    culture = barsibu
    religion = bulwari_sun_cult
	holding = castle_holding

    # History
}

###c_zanakes
559 = {		#Zanakes

    # Misc
    culture = barsibu
    religion = bulwari_sun_cult
	holding = castle_holding

    # History
}

###c_ginerdu
586 = {		#Ginerdu

    # Misc
    culture = barsibu
    religion = bulwari_sun_cult
	holding = castle_holding

    # History
}

###c_duklum_tanuz
588 = {		#Duklum Tanuz

    # Misc
    culture = barsibu
    religion = bulwari_sun_cult
	holding = castle_holding

    # History
}